2016/06/05 03:54:33 [error] 24686#0: *3861 open() "/usr/share/nginx/html404" failed (2: No such file or directory), client: 86.62.117.180, server: canseidebuscar.com.br, request: "GET /wp-login.php HTTP/1.1", host: "canseidebuscar.com.br"
2016/06/05 07:32:25 [error] 24685#0: *4646 open() "/usr/share/nginx/html404" failed (2: No such file or directory), client: 66.249.65.46, server: canseidebuscar.com.br, request: "GET /cansei/index.php?option=com_mtree&task=listcats&cat_id=1753 HTTP/1.1", host: "canseidebuscar.com.br"
2016/06/06 20:16:46 [error] 24686#0: *33855 open() "/srv/canseidebuscar.com.br/www/components/com_djclassifieds/images/item/46_odontoclinic_ths.jpg" failed (2: No such file or directory), client: 69.171.230.120, server: canseidebuscar.com.br, request: "GET /components/com_djclassifieds/images/item/46_odontoclinic_ths.jpg HTTP/1.1", host: "canseidebuscar.com.br"
2016/06/06 21:18:03 [error] 24688#0: *34789 open() "/srv/canseidebuscar.com.br/www/components/com_djclassifieds/images/item/46_odontoclinic_ths.jpg" failed (2: No such file or directory), client: 173.252.90.117, server: canseidebuscar.com.br, request: "GET /components/com_djclassifieds/images/item/46_odontoclinic_ths.jpg HTTP/1.1", host: "canseidebuscar.com.br"
2016/06/06 21:18:03 [error] 24688#0: *34790 open() "/srv/canseidebuscar.com.br/www/components/com_djclassifieds/images/item/43_7c6875_aa1ae9b4cecf40a5ae1f46d51269cb05_ths.jpg" failed (2: No such file or directory), client: 173.252.90.248, server: canseidebuscar.com.br, request: "GET /components/com_djclassifieds/images/item/43_7c6875_aa1ae9b4cecf40a5ae1f46d51269cb05_ths.jpg HTTP/1.1", host: "canseidebuscar.com.br"
2016/06/06 21:18:15 [error] 24688#0: *34791 open() "/srv/canseidebuscar.com.br/www/components/com_djclassifieds/images/item/46_odontoclinic_ths.jpg" failed (2: No such file or directory), client: 69.171.230.105, server: canseidebuscar.com.br, request: "GET /components/com_djclassifieds/images/item/46_odontoclinic_ths.jpg HTTP/1.1", host: "canseidebuscar.com.br"
2016/06/07 12:32:10 [error] 24686#0: *44827 open() "/usr/share/nginx/html404" failed (2: No such file or directory), client: 66.249.65.46, server: canseidebuscar.com.br, request: "GET /cansei/index.php?option=com_mtree&task=listcats&cat_id=1703 HTTP/1.1", host: "canseidebuscar.com.br"
2016/06/08 01:09:37 [error] 24686#0: *56223 open() "/usr/share/nginx/html404" failed (2: No such file or directory), client: 66.249.64.169, server: canseidebuscar.com.br, request: "GET /cansei/index.php?option=com_mtree&task=viewlink&link_id=8499&Itemid= HTTP/1.1", host: "canseidebuscar.com.br"
2016/06/08 11:33:33 [alert] 24685#0: *62990 write() to "/srv/canseidebuscar.com.br/log/nginx/access.log" was incomplete: 203 of 208 while logging request, client: 66.249.64.157, server: canseidebuscar.com.br, request: "GET /index.php/component/mtree/search-by/estado/96.html?value=sp HTTP/1.1", upstream: "fastcgi://unix:/srv/canseidebuscar.com.br/etc/php/php.sock", host: "canseidebuscar.com.br"
2016/06/08 11:47:37 [error] 24685#0: *63087 open() "/srv/canseidebuscar.com.br/www/favicon.ico" failed (2: No such file or directory), client: 191.187.126.12, server: canseidebuscar.com.br, request: "GET /favicon.ico HTTP/1.1", host: "canseidebuscar.com.br", referrer: "http://canseidebuscar.com.br/images/logo.png"
2016/06/08 12:46:49 [alert] 24685#0: *63618 write() to "/srv/canseidebuscar.com.br/log/nginx/access.log" failed (28: No space left on device) while logging request, client: 8.37.71.15, server: canseidebuscar.com.br, request: "GET /robots.txt HTTP/1.1", host: "canseidebuscar.com.br"
2016/06/08 12:51:34 [alert] 24687#0: *63675 write() to "/srv/canseidebuscar.com.br/log/nginx/access.log" failed (28: No space left on device) while logging request, client: 8.37.71.13, server: canseidebuscar.com.br, request: "GET /robots.txt HTTP/1.1", host: "canseidebuscar.com.br"
