- -  04/Jun/2016:11:29:52 -0300 "GET /index.php" 200
- -  04/Jun/2016:11:47:38 -0300 "GET /index.php" 301
- -  04/Jun/2016:11:47:40 -0300 "GET /index.php" 301
- -  04/Jun/2016:11:47:40 -0300 "GET /index.php" 301
- -  04/Jun/2016:11:47:41 -0300 "GET /index.php" 301
- -  04/Jun/2016:11:47:41 -0300 "GET /index.php" 301
- -  04/Jun/2016:12:33:01 -0300 "GET /index.php" 200
- -  04/Jun/2016:12:33:06 -0300 "GET /index.php" 200
- -  04/Jun/2016:12:33:06 -0300 "GET /index.php" 200
- -  04/Jun/2016:12:33:06 -0300 "GET /index.php" 200
- -  04/Jun/2016:12:33:06 -0300 "GET /index.php" 200
- -  04/Jun/2016:13:10:11 -0300 "GET /index.php" 200
- -  04/Jun/2016:13:12:10 -0300 "GET /index.php" 200
- -  04/Jun/2016:13:15:52 -0300 "GET /index.php" 301
- -  04/Jun/2016:13:15:52 -0300 "GET /index.php" 301
- -  04/Jun/2016:13:15:53 -0300 "GET /index.php" 301
- -  04/Jun/2016:13:15:54 -0300 "GET /index.php" 301
- -  04/Jun/2016:13:15:54 -0300 "GET /index.php" 301
- -  04/Jun/2016:13:22:59 -0300 "GET /index.php" 301
- -  04/Jun/2016:13:22:59 -0300 "GET /index.php" 301
- -  04/Jun/2016:13:23:00 -0300 "GET /index.php" 301
- -  04/Jun/2016:13:23:01 -0300 "GET /index.php" 301
- -  04/Jun/2016:13:23:02 -0300 "GET /index.php" 301
- -  04/Jun/2016:13:23:03 -0300 "GET /index.php" 200
- -  04/Jun/2016:13:23:27 -0300 "GET /index.php" 200
- -  04/Jun/2016:13:24:24 -0300 "GET /index.php" 301
- -  04/Jun/2016:13:24:25 -0300 "GET /index.php" 301
- -  04/Jun/2016:13:24:25 -0300 "GET /index.php" 301
- -  04/Jun/2016:13:24:26 -0300 "GET /index.php" 301
- -  04/Jun/2016:13:24:27 -0300 "GET /index.php" 301
- -  04/Jun/2016:13:42:54 -0300 "GET /index.php" 301
- -  04/Jun/2016:13:42:55 -0300 "GET /index.php" 301
- -  04/Jun/2016:13:42:56 -0300 "GET /index.php" 301
- -  04/Jun/2016:13:42:57 -0300 "GET /index.php" 301
- -  04/Jun/2016:13:42:58 -0300 "GET /index.php" 301
- -  04/Jun/2016:14:14:12 -0300 "GET /index.php" 301
- -  04/Jun/2016:14:14:13 -0300 "GET /index.php" 301
- -  04/Jun/2016:14:14:14 -0300 "GET /index.php" 301
- -  04/Jun/2016:14:14:14 -0300 "GET /index.php" 301
- -  04/Jun/2016:14:14:15 -0300 "GET /index.php" 301
- -  04/Jun/2016:14:17:03 -0300 "GET /index.php" 301
- -  04/Jun/2016:14:17:03 -0300 "GET /index.php" 301
- -  04/Jun/2016:14:17:04 -0300 "GET /index.php" 301
- -  04/Jun/2016:14:17:05 -0300 "GET /index.php" 301
- -  04/Jun/2016:14:17:05 -0300 "GET /index.php" 301
- -  04/Jun/2016:14:25:52 -0300 "GET /index.php" 301
- -  04/Jun/2016:14:25:53 -0300 "GET /index.php" 301
- -  04/Jun/2016:14:25:54 -0300 "GET /index.php" 301
- -  04/Jun/2016:14:25:55 -0300 "GET /index.php" 301
- -  04/Jun/2016:14:25:55 -0300 "GET /index.php" 301
- -  04/Jun/2016:14:52:37 -0300 "GET /index.php" 301
- -  04/Jun/2016:14:52:38 -0300 "GET /index.php" 301
- -  04/Jun/2016:14:52:39 -0300 "GET /index.php" 301
- -  04/Jun/2016:14:52:40 -0300 "GET /index.php" 301
- -  04/Jun/2016:14:52:40 -0300 "GET /index.php" 301
- -  04/Jun/2016:15:04:00 -0300 "GET /index.php" 200
- -  04/Jun/2016:15:29:37 -0300 "GET /index.php" 301
- -  04/Jun/2016:15:29:38 -0300 "GET /index.php" 301
- -  04/Jun/2016:15:29:39 -0300 "GET /index.php" 301
- -  04/Jun/2016:15:29:39 -0300 "GET /index.php" 301
- -  04/Jun/2016:15:29:40 -0300 "GET /index.php" 301
- -  04/Jun/2016:15:31:02 -0300 "GET /index.php" 301
- -  04/Jun/2016:15:31:03 -0300 "GET /index.php" 301
- -  04/Jun/2016:15:31:04 -0300 "GET /index.php" 301
- -  04/Jun/2016:15:31:05 -0300 "GET /index.php" 301
- -  04/Jun/2016:15:31:05 -0300 "GET /index.php" 301
- -  04/Jun/2016:15:32:28 -0300 "GET /index.php" 301
- -  04/Jun/2016:15:32:28 -0300 "GET /index.php" 301
- -  04/Jun/2016:15:32:29 -0300 "GET /index.php" 301
- -  04/Jun/2016:15:32:29 -0300 "GET /index.php" 301
- -  04/Jun/2016:15:32:30 -0300 "GET /index.php" 301
- -  04/Jun/2016:15:56:39 -0300 "GET /index.php" 301
- -  04/Jun/2016:15:56:40 -0300 "GET /index.php" 301
- -  04/Jun/2016:15:56:41 -0300 "GET /index.php" 301
- -  04/Jun/2016:15:56:42 -0300 "GET /index.php" 301
- -  04/Jun/2016:15:56:42 -0300 "GET /index.php" 301
- -  04/Jun/2016:16:22:16 -0300 "GET /index.php" 301
- -  04/Jun/2016:16:22:17 -0300 "GET /index.php" 301
- -  04/Jun/2016:16:22:18 -0300 "GET /index.php" 301
- -  04/Jun/2016:16:22:18 -0300 "GET /index.php" 301
- -  04/Jun/2016:16:22:19 -0300 "GET /index.php" 301
- -  04/Jun/2016:16:25:51 -0300 "GET /index.php" 200
- -  04/Jun/2016:16:26:21 -0300 "GET /index.php" 200
- -  04/Jun/2016:16:40:46 -0300 "GET /index.php" 200
- -  04/Jun/2016:16:46:27 -0300 "GET /index.php" 301
- -  04/Jun/2016:16:46:28 -0300 "GET /index.php" 301
- -  04/Jun/2016:16:46:29 -0300 "GET /index.php" 301
- -  04/Jun/2016:16:46:29 -0300 "GET /index.php" 301
- -  04/Jun/2016:16:46:30 -0300 "GET /index.php" 301
- -  04/Jun/2016:16:50:33 -0300 "GET /index.php" 301
- -  04/Jun/2016:16:50:33 -0300 "GET /index.php" 301
- -  04/Jun/2016:16:50:34 -0300 "GET /index.php" 301
- -  04/Jun/2016:16:50:34 -0300 "GET /index.php" 301
- -  04/Jun/2016:16:50:35 -0300 "GET /index.php" 301
- -  04/Jun/2016:16:50:35 -0300 "GET /index.php" 301
- -  04/Jun/2016:16:50:36 -0300 "GET /index.php" 301
- -  04/Jun/2016:16:50:36 -0300 "GET /index.php" 301
- -  04/Jun/2016:16:50:37 -0300 "GET /index.php" 301
- -  04/Jun/2016:16:50:38 -0300 "GET /index.php" 301
- -  04/Jun/2016:16:50:38 -0300 "GET /index.php" 301
- -  04/Jun/2016:16:50:39 -0300 "GET /index.php" 301
- -  04/Jun/2016:16:50:39 -0300 "GET /index.php" 301
- -  04/Jun/2016:16:50:40 -0300 "GET /index.php" 301
- -  04/Jun/2016:16:50:40 -0300 "GET /index.php" 301
- -  04/Jun/2016:16:50:41 -0300 "GET /index.php" 301
- -  04/Jun/2016:16:50:41 -0300 "GET /index.php" 301
- -  04/Jun/2016:16:50:42 -0300 "GET /index.php" 301
- -  04/Jun/2016:16:50:42 -0300 "GET /index.php" 301
- -  04/Jun/2016:16:50:43 -0300 "GET /index.php" 301
- -  04/Jun/2016:16:50:43 -0300 "GET /index.php" 301
- -  04/Jun/2016:17:04:06 -0300 "GET /index.php" 301
- -  04/Jun/2016:17:09:13 -0300 "GET /index.php" 301
- -  04/Jun/2016:17:09:14 -0300 "GET /index.php" 301
- -  04/Jun/2016:17:09:15 -0300 "GET /index.php" 301
- -  04/Jun/2016:17:09:16 -0300 "GET /index.php" 301
- -  04/Jun/2016:17:09:17 -0300 "GET /index.php" 301
- -  04/Jun/2016:17:14:52 -0300 "GET /index.php" 301
- -  04/Jun/2016:17:14:53 -0300 "GET /index.php" 301
- -  04/Jun/2016:17:14:53 -0300 "GET /index.php" 301
- -  04/Jun/2016:17:22:02 -0300 "GET /index.php" 301
- -  04/Jun/2016:17:22:02 -0300 "GET /index.php" 301
- -  04/Jun/2016:17:22:03 -0300 "GET /index.php" 301
- -  04/Jun/2016:17:22:04 -0300 "GET /index.php" 301
- -  04/Jun/2016:17:22:05 -0300 "GET /index.php" 301
- -  04/Jun/2016:17:24:52 -0300 "GET /index.php" 301
- -  04/Jun/2016:17:24:53 -0300 "GET /index.php" 301
- -  04/Jun/2016:17:24:54 -0300 "GET /index.php" 301
- -  04/Jun/2016:17:24:54 -0300 "GET /index.php" 301
- -  04/Jun/2016:17:24:55 -0300 "GET /index.php" 301
- -  04/Jun/2016:17:47:39 -0300 "GET /index.php" 301
- -  04/Jun/2016:17:47:39 -0300 "GET /index.php" 301
- -  04/Jun/2016:17:47:40 -0300 "GET /index.php" 301
- -  04/Jun/2016:17:47:41 -0300 "GET /index.php" 301
- -  04/Jun/2016:17:47:42 -0300 "GET /index.php" 301
- -  04/Jun/2016:17:51:54 -0300 "GET /index.php" 301
- -  04/Jun/2016:17:51:55 -0300 "GET /index.php" 301
- -  04/Jun/2016:17:51:56 -0300 "GET /index.php" 301
- -  04/Jun/2016:17:51:57 -0300 "GET /index.php" 301
- -  04/Jun/2016:17:51:57 -0300 "GET /index.php" 301
- -  04/Jun/2016:18:45:50 -0300 "GET /index.php" 200
- -  04/Jun/2016:19:04:02 -0300 "GET /index.php" 200
- -  04/Jun/2016:19:04:06 -0300 "GET /index.php" 200
- -  04/Jun/2016:19:04:07 -0300 "GET /index.php" 200
- -  04/Jun/2016:19:04:07 -0300 "GET /index.php" 200
- -  04/Jun/2016:19:04:07 -0300 "GET /index.php" 200
- -  04/Jun/2016:19:11:49 -0300 "GET /index.php" 200
- -  04/Jun/2016:19:11:50 -0300 "GET /index.php" 200
- -  04/Jun/2016:19:11:50 -0300 "GET /index.php" 200
- -  04/Jun/2016:19:11:51 -0300 "GET /index.php" 200
- -  04/Jun/2016:19:11:51 -0300 "GET /index.php" 200
- -  04/Jun/2016:19:11:54 -0300 "GET /index.php" 200
- -  04/Jun/2016:19:11:56 -0300 "GET /index.php" 200
- -  04/Jun/2016:19:11:56 -0300 "GET /index.php" 200
- -  04/Jun/2016:19:11:56 -0300 "GET /index.php" 200
- -  04/Jun/2016:19:11:59 -0300 "GET /index.php" 200
- -  04/Jun/2016:19:19:40 -0300 "GET /index.php" 200
- -  04/Jun/2016:19:19:56 -0300 "GET /index.php" 200
- -  04/Jun/2016:19:52:37 -0300 "GET /index.php" 301
- -  04/Jun/2016:19:52:37 -0300 "GET /index.php" 301
- -  04/Jun/2016:19:52:38 -0300 "GET /index.php" 301
- -  04/Jun/2016:19:52:39 -0300 "GET /index.php" 301
- -  04/Jun/2016:19:52:40 -0300 "GET /index.php" 301
- -  04/Jun/2016:19:58:36 -0300 "GET /index.php" 301
- -  04/Jun/2016:19:58:37 -0300 "GET /index.php" 301
- -  04/Jun/2016:19:58:38 -0300 "GET /index.php" 301
- -  04/Jun/2016:19:58:38 -0300 "GET /index.php" 301
- -  04/Jun/2016:19:58:38 -0300 "GET /index.php" 301
- -  04/Jun/2016:20:32:45 -0300 "GET /index.php" 200
- -  04/Jun/2016:20:39:41 -0300 "GET /links.php" 200
- -  04/Jun/2016:20:57:18 -0300 "GET /index.php" 301
- -  04/Jun/2016:20:57:19 -0300 "GET /index.php" 301
- -  04/Jun/2016:20:57:20 -0300 "GET /index.php" 301
- -  04/Jun/2016:20:57:20 -0300 "GET /index.php" 301
- -  04/Jun/2016:20:57:21 -0300 "GET /index.php" 301
- -  04/Jun/2016:20:58:51 -0300 "GET /index.php" 301
- -  04/Jun/2016:20:58:51 -0300 "GET /index.php" 301
- -  04/Jun/2016:20:58:52 -0300 "GET /index.php" 301
- -  04/Jun/2016:20:58:53 -0300 "GET /index.php" 301
- -  04/Jun/2016:20:58:53 -0300 "GET /index.php" 301
- -  04/Jun/2016:21:12:30 -0300 "GET /index.php" 200
- -  04/Jun/2016:21:25:07 -0300 "GET /index.php" 301
- -  04/Jun/2016:21:25:08 -0300 "GET /index.php" 301
- -  04/Jun/2016:21:25:09 -0300 "GET /index.php" 301
- -  04/Jun/2016:21:25:09 -0300 "GET /index.php" 301
- -  04/Jun/2016:21:25:09 -0300 "GET /index.php" 301
- -  04/Jun/2016:21:37:29 -0300 "GET /index.php" 301
- -  04/Jun/2016:21:37:29 -0300 "GET /index.php" 301
- -  04/Jun/2016:21:37:30 -0300 "GET /index.php" 301
- -  04/Jun/2016:21:37:30 -0300 "GET /index.php" 301
- -  04/Jun/2016:21:37:31 -0300 "GET /index.php" 301
- -  04/Jun/2016:21:43:39 -0300 "GET /index.php" 301
- -  04/Jun/2016:21:43:40 -0300 "GET /index.php" 301
- -  04/Jun/2016:21:43:41 -0300 "GET /index.php" 301
- -  04/Jun/2016:21:43:41 -0300 "GET /index.php" 301
- -  04/Jun/2016:21:43:42 -0300 "GET /index.php" 301
- -  04/Jun/2016:22:05:17 -0300 "GET /index.php" 200
- -  04/Jun/2016:22:22:17 -0300 "GET /index.php" 301
- -  04/Jun/2016:22:22:18 -0300 "GET /index.php" 301
- -  04/Jun/2016:22:22:19 -0300 "GET /index.php" 301
- -  04/Jun/2016:22:22:19 -0300 "GET /index.php" 301
- -  04/Jun/2016:22:22:20 -0300 "GET /index.php" 301
- -  04/Jun/2016:22:25:33 -0300 "GET /index.php" 200
- -  04/Jun/2016:22:26:03 -0300 "GET /index.php" 200
- -  04/Jun/2016:22:30:10 -0300 "GET /index.php" 301
- -  04/Jun/2016:22:30:10 -0300 "GET /index.php" 301
- -  04/Jun/2016:22:30:11 -0300 "GET /index.php" 301
- -  04/Jun/2016:22:30:12 -0300 "GET /index.php" 301
- -  04/Jun/2016:22:30:13 -0300 "GET /index.php" 301
- -  04/Jun/2016:22:30:13 -0300 "GET /index.php" 301
- -  04/Jun/2016:22:30:14 -0300 "GET /index.php" 301
- -  04/Jun/2016:22:30:14 -0300 "GET /index.php" 301
- -  04/Jun/2016:22:30:15 -0300 "GET /index.php" 301
- -  04/Jun/2016:22:30:16 -0300 "GET /index.php" 301
- -  04/Jun/2016:22:30:16 -0300 "GET /index.php" 301
- -  04/Jun/2016:22:30:17 -0300 "GET /index.php" 301
- -  04/Jun/2016:22:30:18 -0300 "GET /index.php" 301
- -  04/Jun/2016:22:30:18 -0300 "GET /index.php" 301
- -  04/Jun/2016:22:30:19 -0300 "GET /index.php" 301
- -  04/Jun/2016:22:30:20 -0300 "GET /index.php" 301
- -  04/Jun/2016:22:30:20 -0300 "GET /index.php" 301
- -  04/Jun/2016:22:30:21 -0300 "GET /index.php" 301
- -  04/Jun/2016:22:30:21 -0300 "GET /index.php" 301
- -  04/Jun/2016:22:30:22 -0300 "GET /index.php" 301
- -  04/Jun/2016:22:30:23 -0300 "GET /index.php" 301
- -  04/Jun/2016:22:47:00 -0300 "GET /index.php" 200
- -  04/Jun/2016:22:47:00 -0300 "GET /index.php" 301
- -  04/Jun/2016:22:47:01 -0300 "GET /index.php" 301
- -  04/Jun/2016:22:47:01 -0300 "GET /index.php" 200
- -  04/Jun/2016:22:47:01 -0300 "GET /index.php" 200
- -  04/Jun/2016:22:47:01 -0300 "GET /index.php" 200
- -  04/Jun/2016:22:47:01 -0300 "GET /index.php" 200
- -  04/Jun/2016:22:47:02 -0300 "GET /index.php" 301
- -  04/Jun/2016:22:47:02 -0300 "GET /index.php" 301
- -  04/Jun/2016:22:47:03 -0300 "GET /index.php" 301
- -  04/Jun/2016:22:53:53 -0300 "GET /index.php" 200
- -  04/Jun/2016:22:54:44 -0300 "GET /index.php" 301
- -  04/Jun/2016:22:54:46 -0300 "GET /index.php" 301
- -  04/Jun/2016:22:54:48 -0300 "GET /index.php" 301
- -  04/Jun/2016:22:54:49 -0300 "GET /index.php" 301
- -  04/Jun/2016:22:54:51 -0300 "GET /index.php" 301
- -  04/Jun/2016:22:59:52 -0300 "GET /index.php" 301
- -  04/Jun/2016:22:59:53 -0300 "GET /index.php" 301
- -  04/Jun/2016:22:59:53 -0300 "GET /index.php" 301
- -  04/Jun/2016:23:00:54 -0300 "GET /index.php" 200
- -  04/Jun/2016:23:21:00 -0300 "GET /index.php" 200
- -  04/Jun/2016:23:21:03 -0300 "GET /index.php" 200
- -  04/Jun/2016:23:21:04 -0300 "GET /index.php" 200
- -  04/Jun/2016:23:22:18 -0300 "GET /index.php" 200
- -  04/Jun/2016:23:27:11 -0300 "GET /index.php" 301
- -  04/Jun/2016:23:27:11 -0300 "GET /index.php" 301
- -  04/Jun/2016:23:27:12 -0300 "GET /index.php" 301
- -  04/Jun/2016:23:27:13 -0300 "GET /index.php" 301
- -  04/Jun/2016:23:27:13 -0300 "GET /index.php" 301
- -  04/Jun/2016:23:46:42 -0300 "GET /index.php" 301
- -  04/Jun/2016:23:46:43 -0300 "GET /index.php" 301
- -  04/Jun/2016:23:46:43 -0300 "GET /index.php" 301
- -  04/Jun/2016:23:46:44 -0300 "GET /index.php" 301
- -  04/Jun/2016:23:46:44 -0300 "GET /index.php" 301
- -  04/Jun/2016:23:53:27 -0300 "GET /index.php" 301
- -  04/Jun/2016:23:53:28 -0300 "GET /index.php" 301
- -  04/Jun/2016:23:53:29 -0300 "GET /index.php" 301
- -  04/Jun/2016:23:53:29 -0300 "GET /index.php" 301
- -  04/Jun/2016:23:53:30 -0300 "GET /index.php" 301
- -  04/Jun/2016:23:54:59 -0300 "GET /index.php" 301
- -  04/Jun/2016:23:55:00 -0300 "GET /index.php" 301
- -  04/Jun/2016:23:55:01 -0300 "GET /index.php" 301
- -  04/Jun/2016:23:55:01 -0300 "GET /index.php" 301
- -  04/Jun/2016:23:55:01 -0300 "GET /index.php" 301
- -  05/Jun/2016:00:28:59 -0300 "GET /index.php" 301
- -  05/Jun/2016:00:28:59 -0300 "GET /index.php" 301
- -  05/Jun/2016:00:29:00 -0300 "GET /index.php" 301
- -  05/Jun/2016:00:29:01 -0300 "GET /index.php" 301
- -  05/Jun/2016:00:29:01 -0300 "GET /index.php" 301
- -  05/Jun/2016:01:02:58 -0300 "GET /index.php" 301
- -  05/Jun/2016:01:02:59 -0300 "GET /index.php" 301
- -  05/Jun/2016:01:03:00 -0300 "GET /index.php" 301
- -  05/Jun/2016:01:03:01 -0300 "GET /index.php" 301
- -  05/Jun/2016:01:03:01 -0300 "GET /index.php" 301
- -  05/Jun/2016:01:21:05 -0300 "GET /index.php" 200
- -  05/Jun/2016:01:21:25 -0300 "GET /index.php" 200
- -  05/Jun/2016:02:05:00 -0300 "GET /index.php" 301
- -  05/Jun/2016:02:05:01 -0300 "GET /index.php" 301
- -  05/Jun/2016:02:05:02 -0300 "GET /index.php" 301
- -  05/Jun/2016:02:05:02 -0300 "GET /index.php" 301
- -  05/Jun/2016:02:05:02 -0300 "GET /index.php" 301
- -  05/Jun/2016:02:06:37 -0300 "GET /index.php" 301
- -  05/Jun/2016:02:06:37 -0300 "GET /index.php" 301
- -  05/Jun/2016:02:06:38 -0300 "GET /index.php" 301
- -  05/Jun/2016:02:06:39 -0300 "GET /index.php" 301
- -  05/Jun/2016:02:06:39 -0300 "GET /index.php" 301
- -  05/Jun/2016:02:08:15 -0300 "GET /index.php" 301
- -  05/Jun/2016:02:08:15 -0300 "GET /index.php" 301
- -  05/Jun/2016:02:08:16 -0300 "GET /index.php" 301
- -  05/Jun/2016:02:08:17 -0300 "GET /index.php" 301
- -  05/Jun/2016:02:08:17 -0300 "GET /index.php" 301
- -  05/Jun/2016:02:38:54 -0300 "GET /index.php" 200
- -  05/Jun/2016:02:40:50 -0300 "GET /index.php" 301
- -  05/Jun/2016:02:40:50 -0300 "GET /index.php" 301
- -  05/Jun/2016:02:40:51 -0300 "GET /index.php" 301
- -  05/Jun/2016:02:40:52 -0300 "GET /index.php" 301
- -  05/Jun/2016:02:40:52 -0300 "GET /index.php" 301
- -  05/Jun/2016:03:08:31 -0300 "GET /index.php" 301
- -  05/Jun/2016:03:08:32 -0300 "GET /index.php" 301
- -  05/Jun/2016:03:08:33 -0300 "GET /index.php" 301
- -  05/Jun/2016:03:08:34 -0300 "GET /index.php" 301
- -  05/Jun/2016:03:08:35 -0300 "GET /index.php" 301
- -  05/Jun/2016:03:29:42 -0300 "GET /index.php" 301
- -  05/Jun/2016:03:29:42 -0300 "GET /index.php" 301
- -  05/Jun/2016:03:29:43 -0300 "GET /index.php" 301
- -  05/Jun/2016:03:29:44 -0300 "GET /index.php" 301
- -  05/Jun/2016:03:29:45 -0300 "GET /index.php" 301
- -  05/Jun/2016:03:31:19 -0300 "GET /index.php" 301
- -  05/Jun/2016:03:31:20 -0300 "GET /index.php" 301
- -  05/Jun/2016:03:31:21 -0300 "GET /index.php" 301
- -  05/Jun/2016:03:31:21 -0300 "GET /index.php" 301
- -  05/Jun/2016:03:31:23 -0300 "GET /index.php" 301
- -  05/Jun/2016:03:54:34 -0300 "GET /administrator/index.php" 200
- -  05/Jun/2016:04:05:32 -0300 "GET /index.php" 301
- -  05/Jun/2016:04:05:33 -0300 "GET /index.php" 301
- -  05/Jun/2016:04:05:34 -0300 "GET /index.php" 301
- -  05/Jun/2016:04:05:35 -0300 "GET /index.php" 301
- -  05/Jun/2016:04:05:35 -0300 "GET /index.php" 301
- -  05/Jun/2016:04:07:10 -0300 "GET /index.php" 301
- -  05/Jun/2016:04:07:10 -0300 "GET /index.php" 301
- -  05/Jun/2016:04:07:11 -0300 "GET /index.php" 301
- -  05/Jun/2016:04:07:12 -0300 "GET /index.php" 301
- -  05/Jun/2016:04:07:13 -0300 "GET /index.php" 301
- -  05/Jun/2016:04:08:47 -0300 "GET /index.php" 301
- -  05/Jun/2016:04:08:48 -0300 "GET /index.php" 301
- -  05/Jun/2016:04:08:49 -0300 "GET /index.php" 301
- -  05/Jun/2016:04:08:50 -0300 "GET /index.php" 301
- -  05/Jun/2016:04:08:50 -0300 "GET /index.php" 301
- -  05/Jun/2016:04:25:55 -0300 "GET /index.php" 200
- -  05/Jun/2016:04:26:26 -0300 "GET /index.php" 200
- -  05/Jun/2016:04:50:08 -0300 "GET /index.php" 301
- -  05/Jun/2016:05:04:11 -0300 "GET /index.php" 301
- -  05/Jun/2016:05:04:11 -0300 "GET /index.php" 301
- -  05/Jun/2016:05:04:12 -0300 "GET /index.php" 301
- -  05/Jun/2016:05:04:12 -0300 "GET /index.php" 301
- -  05/Jun/2016:05:04:13 -0300 "GET /index.php" 301
- -  05/Jun/2016:05:05:48 -0300 "GET /index.php" 301
- -  05/Jun/2016:05:05:49 -0300 "GET /index.php" 301
- -  05/Jun/2016:05:05:50 -0300 "GET /index.php" 301
- -  05/Jun/2016:05:05:50 -0300 "GET /index.php" 301
- -  05/Jun/2016:05:05:51 -0300 "GET /index.php" 301
- -  05/Jun/2016:05:36:45 -0300 "GET /index.php" 200
- -  05/Jun/2016:05:38:23 -0300 "GET /index.php" 301
- -  05/Jun/2016:05:38:24 -0300 "GET /index.php" 301
- -  05/Jun/2016:05:38:25 -0300 "GET /index.php" 301
- -  05/Jun/2016:05:38:25 -0300 "GET /index.php" 301
- -  05/Jun/2016:05:38:26 -0300 "GET /index.php" 301
- -  05/Jun/2016:05:58:07 -0300 "GET /index.php" 200
- -  05/Jun/2016:06:07:42 -0300 "GET /index.php" 200
- -  05/Jun/2016:06:09:20 -0300 "GET /index.php" 301
- -  05/Jun/2016:06:09:20 -0300 "GET /index.php" 301
- -  05/Jun/2016:06:09:21 -0300 "GET /index.php" 301
- -  05/Jun/2016:06:09:22 -0300 "GET /index.php" 301
- -  05/Jun/2016:06:09:22 -0300 "GET /index.php" 301
- -  05/Jun/2016:06:10:58 -0300 "GET /index.php" 301
- -  05/Jun/2016:06:10:58 -0300 "GET /index.php" 301
- -  05/Jun/2016:06:10:59 -0300 "GET /index.php" 301
- -  05/Jun/2016:06:10:59 -0300 "GET /index.php" 301
- -  05/Jun/2016:06:11:00 -0300 "GET /index.php" 301
- -  05/Jun/2016:06:38:04 -0300 "GET /index.php" 200
- -  05/Jun/2016:07:07:59 -0300 "GET /index.php" 200
- -  05/Jun/2016:07:09:36 -0300 "GET /index.php" 301
- -  05/Jun/2016:07:09:37 -0300 "GET /index.php" 301
- -  05/Jun/2016:07:09:37 -0300 "GET /index.php" 301
- -  05/Jun/2016:07:09:38 -0300 "GET /index.php" 301
- -  05/Jun/2016:07:09:38 -0300 "GET /index.php" 301
- -  05/Jun/2016:07:20:38 -0300 "GET /index.php" 200
- -  05/Jun/2016:07:20:55 -0300 "GET /index.php" 200
- -  05/Jun/2016:07:58:23 -0300 "GET /index.php" 301
- -  05/Jun/2016:07:58:24 -0300 "GET /index.php" 301
- -  05/Jun/2016:07:58:25 -0300 "GET /index.php" 301
- -  05/Jun/2016:07:58:26 -0300 "GET /index.php" 301
- -  05/Jun/2016:07:58:26 -0300 "GET /index.php" 301
- -  05/Jun/2016:08:00:00 -0300 "GET /index.php" 301
- -  05/Jun/2016:08:00:01 -0300 "GET /index.php" 301
- -  05/Jun/2016:08:00:02 -0300 "GET /index.php" 301
- -  05/Jun/2016:08:00:03 -0300 "GET /index.php" 301
- -  05/Jun/2016:08:00:04 -0300 "GET /index.php" 301
- -  05/Jun/2016:08:01:38 -0300 "GET /index.php" 301
- -  05/Jun/2016:08:01:38 -0300 "GET /index.php" 301
- -  05/Jun/2016:08:01:39 -0300 "GET /index.php" 301
- -  05/Jun/2016:08:01:40 -0300 "GET /index.php" 301
- -  05/Jun/2016:08:01:40 -0300 "GET /index.php" 301
- -  05/Jun/2016:09:04:52 -0300 "GET /index.php" 301
- -  05/Jun/2016:09:04:53 -0300 "GET /index.php" 301
- -  05/Jun/2016:09:04:54 -0300 "GET /index.php" 301
- -  05/Jun/2016:09:04:55 -0300 "GET /index.php" 301
- -  05/Jun/2016:09:04:56 -0300 "GET /index.php" 301
- -  05/Jun/2016:09:06:30 -0300 "GET /index.php" 301
- -  05/Jun/2016:09:06:30 -0300 "GET /index.php" 301
- -  05/Jun/2016:09:06:31 -0300 "GET /index.php" 301
- -  05/Jun/2016:09:06:32 -0300 "GET /index.php" 301
- -  05/Jun/2016:09:06:33 -0300 "GET /index.php" 301
- -  05/Jun/2016:09:23:56 -0300 "GET /index.php" 200
- -  05/Jun/2016:09:24:23 -0300 "GET /index.php" 200
- -  05/Jun/2016:09:38:56 -0300 "GET /index.php" 301
- -  05/Jun/2016:09:38:57 -0300 "GET /index.php" 301
- -  05/Jun/2016:09:38:58 -0300 "GET /index.php" 301
- -  05/Jun/2016:09:38:58 -0300 "GET /index.php" 301
- -  05/Jun/2016:09:38:59 -0300 "GET /index.php" 301
- -  05/Jun/2016:09:40:33 -0300 "GET /index.php" 301
- -  05/Jun/2016:09:40:33 -0300 "GET /index.php" 301
- -  05/Jun/2016:09:40:34 -0300 "GET /index.php" 301
- -  05/Jun/2016:09:40:35 -0300 "GET /index.php" 301
- -  05/Jun/2016:09:40:36 -0300 "GET /index.php" 301
- -  05/Jun/2016:10:08:07 -0300 "GET /index.php" 301
- -  05/Jun/2016:10:08:08 -0300 "GET /index.php" 301
- -  05/Jun/2016:10:08:09 -0300 "GET /index.php" 301
- -  05/Jun/2016:10:08:09 -0300 "GET /index.php" 301
- -  05/Jun/2016:10:08:10 -0300 "GET /index.php" 301
- -  05/Jun/2016:10:09:44 -0300 "GET /index.php" 301
- -  05/Jun/2016:10:09:45 -0300 "GET /index.php" 301
- -  05/Jun/2016:10:09:46 -0300 "GET /index.php" 301
- -  05/Jun/2016:10:09:46 -0300 "GET /index.php" 301
- -  05/Jun/2016:10:09:46 -0300 "GET /index.php" 301
- -  05/Jun/2016:10:16:12 -0300 "GET /index.php" 200
- -  05/Jun/2016:10:17:10 -0300 "GET /index.php" 200
- -  05/Jun/2016:10:24:58 -0300 "GET /index.php" 200
- -  05/Jun/2016:10:25:27 -0300 "GET /index.php" 200
- -  05/Jun/2016:11:19:12 -0300 "GET /index.php" 200
- -  05/Jun/2016:12:04:53 -0300 "GET /index.php" 301
- -  05/Jun/2016:12:04:53 -0300 "GET /index.php" 301
- -  05/Jun/2016:12:04:54 -0300 "GET /index.php" 301
- -  05/Jun/2016:12:04:54 -0300 "GET /index.php" 301
- -  05/Jun/2016:12:04:55 -0300 "GET /index.php" 301
- -  05/Jun/2016:12:06:30 -0300 "GET /index.php" 301
- -  05/Jun/2016:12:06:30 -0300 "GET /index.php" 301
- -  05/Jun/2016:12:06:31 -0300 "GET /index.php" 301
- -  05/Jun/2016:12:06:31 -0300 "GET /index.php" 301
- -  05/Jun/2016:12:06:32 -0300 "GET /index.php" 301
- -  05/Jun/2016:12:50:08 -0300 "GET /index.php" 301
- -  05/Jun/2016:12:50:08 -0300 "GET /index.php" 301
- -  05/Jun/2016:12:50:09 -0300 "GET /index.php" 301
- -  05/Jun/2016:13:09:44 -0300 "GET /index.php" 301
- -  05/Jun/2016:13:09:45 -0300 "GET /index.php" 301
- -  05/Jun/2016:13:09:46 -0300 "GET /index.php" 301
- -  05/Jun/2016:13:09:47 -0300 "GET /index.php" 301
- -  05/Jun/2016:13:09:47 -0300 "GET /index.php" 301
- -  05/Jun/2016:13:24:04 -0300 "GET /index.php" 200
- -  05/Jun/2016:13:24:29 -0300 "GET /index.php" 200
- -  05/Jun/2016:13:35:30 -0300 "GET /administrator/index.php" 200
- -  05/Jun/2016:13:35:31 -0300 "POST /administrator/index.php" 500
- -  05/Jun/2016:14:10:52 -0300 "GET /administrator/index.php" 200
- -  05/Jun/2016:14:10:53 -0300 "POST /administrator/index.php" 500
- -  05/Jun/2016:14:30:49 -0300 "GET /index.php" 301
- -  05/Jun/2016:14:30:50 -0300 "GET /index.php" 301
- -  05/Jun/2016:14:30:51 -0300 "GET /index.php" 301
- -  05/Jun/2016:14:30:52 -0300 "GET /index.php" 301
- -  05/Jun/2016:14:30:53 -0300 "GET /index.php" 301
- -  05/Jun/2016:14:46:02 -0300 "GET /administrator/index.php" 200
- -  05/Jun/2016:14:46:03 -0300 "POST /administrator/index.php" 500
- -  05/Jun/2016:15:04:52 -0300 "GET /index.php" 200
- -  05/Jun/2016:15:08:07 -0300 "GET /index.php" 301
- -  05/Jun/2016:15:08:07 -0300 "GET /index.php" 301
- -  05/Jun/2016:15:08:08 -0300 "GET /index.php" 301
- -  05/Jun/2016:15:08:09 -0300 "GET /index.php" 301
- -  05/Jun/2016:15:08:10 -0300 "GET /index.php" 301
- -  05/Jun/2016:15:09:44 -0300 "GET /index.php" 301
- -  05/Jun/2016:15:09:45 -0300 "GET /index.php" 301
- -  05/Jun/2016:15:09:46 -0300 "GET /index.php" 301
- -  05/Jun/2016:15:09:47 -0300 "GET /index.php" 301
- -  05/Jun/2016:15:09:47 -0300 "GET /index.php" 301
- -  05/Jun/2016:15:16:46 -0300 "GET /index.php" 200
- -  05/Jun/2016:15:16:47 -0300 "GET /index.php" 200
- -  05/Jun/2016:15:16:48 -0300 "GET /index.php" 200
- -  05/Jun/2016:15:16:48 -0300 "GET /index.php" 200
- -  05/Jun/2016:15:16:48 -0300 "GET /index.php" 200
- -  05/Jun/2016:15:17:15 -0300 "GET /index.php" 200
- -  05/Jun/2016:15:17:15 -0300 "GET /index.php" 200
- -  05/Jun/2016:15:17:18 -0300 "GET /index.php" 200
- -  05/Jun/2016:15:18:37 -0300 "GET /index.php" 200
- -  05/Jun/2016:15:19:29 -0300 "GET /index.php" 200
- -  05/Jun/2016:15:20:52 -0300 "GET /administrator/index.php" 200
- -  05/Jun/2016:15:20:53 -0300 "POST /administrator/index.php" 500
- -  05/Jun/2016:15:34:04 -0300 "GET /index.php" 301
- -  05/Jun/2016:15:34:04 -0300 "GET /index.php" 301
- -  05/Jun/2016:15:34:05 -0300 "GET /index.php" 301
- -  05/Jun/2016:15:34:06 -0300 "GET /index.php" 301
- -  05/Jun/2016:15:34:07 -0300 "GET /index.php" 301
- -  05/Jun/2016:15:35:41 -0300 "GET /index.php" 301
- -  05/Jun/2016:15:35:42 -0300 "GET /index.php" 301
- -  05/Jun/2016:15:35:43 -0300 "GET /index.php" 301
- -  05/Jun/2016:15:35:43 -0300 "GET /index.php" 301
- -  05/Jun/2016:15:35:44 -0300 "GET /index.php" 301
- -  05/Jun/2016:15:37:18 -0300 "GET /index.php" 301
- -  05/Jun/2016:15:37:19 -0300 "GET /index.php" 301
- -  05/Jun/2016:15:37:20 -0300 "GET /index.php" 301
- -  05/Jun/2016:15:37:21 -0300 "GET /index.php" 301
- -  05/Jun/2016:15:37:21 -0300 "GET /index.php" 301
- -  05/Jun/2016:15:55:23 -0300 "GET /administrator/index.php" 200
- -  05/Jun/2016:15:55:24 -0300 "POST /administrator/index.php" 500
- -  05/Jun/2016:16:25:58 -0300 "GET /index.php" 200
- -  05/Jun/2016:16:26:49 -0300 "GET /index.php" 200
- -  05/Jun/2016:16:27:21 -0300 "GET /index.php" 200
- -  05/Jun/2016:16:29:12 -0300 "GET /index.php" 301
- -  05/Jun/2016:16:29:12 -0300 "GET /index.php" 301
- -  05/Jun/2016:16:29:13 -0300 "GET /index.php" 301
- -  05/Jun/2016:16:29:14 -0300 "GET /index.php" 301
- -  05/Jun/2016:16:29:15 -0300 "GET /index.php" 301
- -  05/Jun/2016:16:30:10 -0300 "GET /administrator/index.php" 200
- -  05/Jun/2016:16:30:12 -0300 "POST /administrator/index.php" 500
- -  05/Jun/2016:16:30:49 -0300 "GET /index.php" 301
- -  05/Jun/2016:16:30:50 -0300 "GET /index.php" 301
- -  05/Jun/2016:16:30:51 -0300 "GET /index.php" 301
- -  05/Jun/2016:16:30:51 -0300 "GET /index.php" 301
- -  05/Jun/2016:16:30:52 -0300 "GET /index.php" 301
- -  05/Jun/2016:16:33:28 -0300 "GET /index.php" 200
- -  05/Jun/2016:16:33:49 -0300 "GET /index.php" 200
- -  05/Jun/2016:16:33:49 -0300 "GET /index.php" 200
- -  05/Jun/2016:16:33:49 -0300 "GET /index.php" 200
- -  05/Jun/2016:16:33:49 -0300 "GET /index.php" 200
- -  05/Jun/2016:16:34:06 -0300 "GET /index.php" 303
- -  05/Jun/2016:16:34:06 -0300 "GET /index.php" 200
- -  05/Jun/2016:16:34:12 -0300 "GET /index.php" 303
- -  05/Jun/2016:16:34:13 -0300 "GET /index.php" 200
- -  05/Jun/2016:16:35:08 -0300 "GET /index.php" 301
- -  05/Jun/2016:16:35:08 -0300 "GET /index.php" 200
- -  05/Jun/2016:16:35:08 -0300 "GET /index.php" 301
- -  05/Jun/2016:16:35:09 -0300 "GET /index.php" 301
- -  05/Jun/2016:16:35:10 -0300 "GET /index.php" 301
- -  05/Jun/2016:16:35:10 -0300 "GET /index.php" 301
- -  05/Jun/2016:16:35:11 -0300 "GET /index.php" 301
- -  05/Jun/2016:16:35:11 -0300 "GET /index.php" 301
- -  05/Jun/2016:16:35:12 -0300 "GET /index.php" 301
- -  05/Jun/2016:16:35:12 -0300 "GET /index.php" 301
- -  05/Jun/2016:16:35:13 -0300 "GET /index.php" 301
- -  05/Jun/2016:16:35:13 -0300 "GET /index.php" 301
- -  05/Jun/2016:16:35:14 -0300 "GET /index.php" 301
- -  05/Jun/2016:16:35:14 -0300 "GET /index.php" 301
- -  05/Jun/2016:16:35:15 -0300 "GET /index.php" 301
- -  05/Jun/2016:16:35:15 -0300 "GET /index.php" 301
- -  05/Jun/2016:16:35:16 -0300 "GET /index.php" 301
- -  05/Jun/2016:16:35:16 -0300 "GET /index.php" 301
- -  05/Jun/2016:16:35:17 -0300 "GET /index.php" 301
- -  05/Jun/2016:16:35:17 -0300 "GET /index.php" 301
- -  05/Jun/2016:16:35:18 -0300 "GET /index.php" 301
- -  05/Jun/2016:16:35:18 -0300 "GET /index.php" 301
- -  05/Jun/2016:16:35:21 -0300 "GET /index.php" 200
- -  05/Jun/2016:16:35:21 -0300 "GET /index.php" 200
- -  05/Jun/2016:16:35:21 -0300 "GET /index.php" 200
- -  05/Jun/2016:16:35:21 -0300 "GET /index.php" 200
- -  05/Jun/2016:16:35:43 -0300 "GET /index.php" 200
- -  05/Jun/2016:16:46:54 -0300 "GET /index.php" 200
- -  05/Jun/2016:17:04:53 -0300 "GET /index.php" 301
- -  05/Jun/2016:17:04:53 -0300 "GET /index.php" 301
- -  05/Jun/2016:17:04:54 -0300 "GET /index.php" 301
- -  05/Jun/2016:17:04:54 -0300 "GET /index.php" 301
- -  05/Jun/2016:17:04:55 -0300 "GET /index.php" 301
- -  05/Jun/2016:17:06:29 -0300 "GET /index.php" 301
- -  05/Jun/2016:17:06:30 -0300 "GET /index.php" 301
- -  05/Jun/2016:17:06:31 -0300 "GET /index.php" 301
- -  05/Jun/2016:17:06:31 -0300 "GET /index.php" 301
- -  05/Jun/2016:17:06:32 -0300 "GET /index.php" 301
- -  05/Jun/2016:17:23:28 -0300 "GET /index.php" 200
- -  05/Jun/2016:17:29:12 -0300 "GET /index.php" 301
- -  05/Jun/2016:17:29:13 -0300 "GET /index.php" 301
- -  05/Jun/2016:17:29:14 -0300 "GET /index.php" 301
- -  05/Jun/2016:17:29:14 -0300 "GET /index.php" 301
- -  05/Jun/2016:17:29:15 -0300 "GET /index.php" 301
- -  05/Jun/2016:17:30:49 -0300 "GET /index.php" 301
- -  05/Jun/2016:17:30:50 -0300 "GET /index.php" 301
- -  05/Jun/2016:17:30:51 -0300 "GET /index.php" 301
- -  05/Jun/2016:17:30:52 -0300 "GET /index.php" 301
- -  05/Jun/2016:17:30:52 -0300 "GET /index.php" 301
- -  05/Jun/2016:17:42:08 -0300 "GET /index.php" 200
- -  05/Jun/2016:17:42:14 -0300 "GET /index.php" 200
- -  05/Jun/2016:17:42:14 -0300 "GET /index.php" 200
- -  05/Jun/2016:17:42:14 -0300 "GET /index.php" 200
- -  05/Jun/2016:17:42:14 -0300 "GET /index.php" 200
- -  05/Jun/2016:18:01:26 -0300 "GET /index.php" 200
- -  05/Jun/2016:18:04:52 -0300 "GET /index.php" 301
- -  05/Jun/2016:18:04:53 -0300 "GET /index.php" 301
- -  05/Jun/2016:18:04:54 -0300 "GET /index.php" 301
- -  05/Jun/2016:18:04:55 -0300 "GET /index.php" 301
- -  05/Jun/2016:18:04:56 -0300 "GET /index.php" 301
- -  05/Jun/2016:18:09:58 -0300 "GET /index.php" 301
- -  05/Jun/2016:18:09:59 -0300 "GET /index.php" 301
- -  05/Jun/2016:18:09:59 -0300 "GET /index.php" 301
- -  05/Jun/2016:18:29:12 -0300 "GET /index.php" 301
- -  05/Jun/2016:18:29:13 -0300 "GET /index.php" 301
- -  05/Jun/2016:18:29:14 -0300 "GET /index.php" 301
- -  05/Jun/2016:18:29:14 -0300 "GET /index.php" 301
- -  05/Jun/2016:18:29:15 -0300 "GET /index.php" 301
- -  05/Jun/2016:18:30:49 -0300 "GET /index.php" 301
- -  05/Jun/2016:18:30:50 -0300 "GET /index.php" 301
- -  05/Jun/2016:18:30:51 -0300 "GET /index.php" 301
- -  05/Jun/2016:18:30:51 -0300 "GET /index.php" 301
- -  05/Jun/2016:18:30:52 -0300 "GET /index.php" 301
- -  05/Jun/2016:19:04:53 -0300 "GET /index.php" 301
- -  05/Jun/2016:19:04:53 -0300 "GET /index.php" 301
- -  05/Jun/2016:19:04:54 -0300 "GET /index.php" 301
- -  05/Jun/2016:19:04:55 -0300 "GET /index.php" 301
- -  05/Jun/2016:19:04:56 -0300 "GET /index.php" 301
- -  05/Jun/2016:19:19:57 -0300 "GET /index.php" 200
- -  05/Jun/2016:19:20:14 -0300 "GET /index.php" 200
- -  05/Jun/2016:19:32:20 -0300 "GET /index.php" 200
- -  05/Jun/2016:19:35:41 -0300 "GET /index.php" 301
- -  05/Jun/2016:19:35:42 -0300 "GET /index.php" 301
- -  05/Jun/2016:19:35:43 -0300 "GET /index.php" 301
- -  05/Jun/2016:19:35:44 -0300 "GET /index.php" 301
- -  05/Jun/2016:19:35:45 -0300 "GET /index.php" 301
- -  05/Jun/2016:19:37:18 -0300 "GET /index.php" 301
- -  05/Jun/2016:19:37:19 -0300 "GET /index.php" 301
- -  05/Jun/2016:19:37:20 -0300 "GET /index.php" 301
- -  05/Jun/2016:19:37:21 -0300 "GET /index.php" 301
- -  05/Jun/2016:19:37:21 -0300 "GET /index.php" 301
- -  05/Jun/2016:20:01:38 -0300 "GET /index.php" 301
- -  05/Jun/2016:20:01:41 -0300 "GET /index.php" 301
- -  05/Jun/2016:20:01:44 -0300 "GET /index.php" 301
- -  05/Jun/2016:20:01:46 -0300 "GET /index.php" 301
- -  05/Jun/2016:20:01:48 -0300 "GET /index.php" 301
- -  05/Jun/2016:20:03:28 -0300 "GET /index.php" 200
- -  05/Jun/2016:20:11:16 -0300 "GET /index.php" 200
- -  05/Jun/2016:20:32:26 -0300 "GET /index.php" 301
- -  05/Jun/2016:20:32:27 -0300 "GET /index.php" 301
- -  05/Jun/2016:20:32:28 -0300 "GET /index.php" 301
- -  05/Jun/2016:20:32:29 -0300 "GET /index.php" 301
- -  05/Jun/2016:20:32:30 -0300 "GET /index.php" 301
- -  05/Jun/2016:20:43:49 -0300 "GET /index.php" 200
- -  05/Jun/2016:21:01:38 -0300 "GET /index.php" 301
- -  05/Jun/2016:21:01:44 -0300 "GET /index.php" 301
- -  05/Jun/2016:21:01:49 -0300 "GET /index.php" 301
- -  05/Jun/2016:21:01:53 -0300 "GET /index.php" 301
- -  05/Jun/2016:21:01:56 -0300 "GET /index.php" 301
- -  05/Jun/2016:21:03:15 -0300 "GET /index.php" 301
- -  05/Jun/2016:21:03:16 -0300 "GET /index.php" 301
- -  05/Jun/2016:21:03:17 -0300 "GET /index.php" 301
- -  05/Jun/2016:21:03:19 -0300 "GET /index.php" 301
- -  05/Jun/2016:21:03:19 -0300 "GET /index.php" 301
- -  05/Jun/2016:21:12:02 -0300 "GET /index.php" 200
- -  05/Jun/2016:21:12:02 -0300 "GET /index.php" 200
- -  05/Jun/2016:21:12:02 -0300 "GET /index.php" 200
- -  05/Jun/2016:21:12:02 -0300 "GET /index.php" 200
- -  05/Jun/2016:21:29:12 -0300 "GET /index.php" 301
- -  05/Jun/2016:21:29:13 -0300 "GET /index.php" 301
- -  05/Jun/2016:21:29:14 -0300 "GET /index.php" 301
- -  05/Jun/2016:21:29:14 -0300 "GET /index.php" 301
- -  05/Jun/2016:21:29:15 -0300 "GET /index.php" 301
- -  05/Jun/2016:21:30:49 -0300 "GET /index.php" 301
- -  05/Jun/2016:21:30:50 -0300 "GET /index.php" 301
- -  05/Jun/2016:21:30:51 -0300 "GET /index.php" 301
- -  05/Jun/2016:21:30:51 -0300 "GET /index.php" 301
- -  05/Jun/2016:21:30:52 -0300 "GET /index.php" 301
- -  05/Jun/2016:21:32:26 -0300 "GET /index.php" 301
- -  05/Jun/2016:21:32:27 -0300 "GET /index.php" 301
- -  05/Jun/2016:21:32:28 -0300 "GET /index.php" 301
- -  05/Jun/2016:21:32:29 -0300 "GET /index.php" 301
- -  05/Jun/2016:21:32:29 -0300 "GET /index.php" 301
- -  05/Jun/2016:21:52:26 -0300 "GET /index.php" 301
- -  05/Jun/2016:21:52:26 -0300 "GET /index.php" 301
- -  05/Jun/2016:21:52:27 -0300 "GET /index.php" 301
- -  05/Jun/2016:21:56:46 -0300 "GET /index.php" 301
- -  05/Jun/2016:21:56:46 -0300 "GET /index.php" 301
- -  05/Jun/2016:21:56:47 -0300 "GET /index.php" 301
- -  05/Jun/2016:21:56:48 -0300 "GET /index.php" 301
- -  05/Jun/2016:21:56:48 -0300 "GET /index.php" 301
- -  05/Jun/2016:21:58:23 -0300 "GET /index.php" 301
- -  05/Jun/2016:21:58:24 -0300 "GET /index.php" 301
- -  05/Jun/2016:21:58:25 -0300 "GET /index.php" 301
- -  05/Jun/2016:21:58:26 -0300 "GET /index.php" 301
- -  05/Jun/2016:21:58:26 -0300 "GET /index.php" 301
- -  05/Jun/2016:22:25:03 -0300 "GET /index.php" 200
- -  05/Jun/2016:22:25:31 -0300 "GET /index.php" 200
- -  05/Jun/2016:22:35:41 -0300 "GET /index.php" 301
- -  05/Jun/2016:22:35:44 -0300 "GET /index.php" 301
- -  05/Jun/2016:22:35:47 -0300 "GET /index.php" 301
- -  05/Jun/2016:22:35:50 -0300 "GET /index.php" 301
- -  05/Jun/2016:22:35:54 -0300 "GET /index.php" 301
- -  05/Jun/2016:22:40:29 -0300 "GET /index.php" 200
- -  05/Jun/2016:23:09:28 -0300 "GET /index.php" 200
- -  05/Jun/2016:23:09:31 -0300 "GET /index.php" 200
- -  05/Jun/2016:23:09:31 -0300 "GET /index.php" 200
- -  05/Jun/2016:23:09:31 -0300 "GET /index.php" 200
- -  05/Jun/2016:23:09:31 -0300 "GET /index.php" 200
- -  05/Jun/2016:23:35:41 -0300 "GET /index.php" 301
- -  05/Jun/2016:23:35:42 -0300 "GET /index.php" 301
- -  05/Jun/2016:23:35:43 -0300 "GET /index.php" 301
- -  05/Jun/2016:23:35:43 -0300 "GET /index.php" 301
- -  05/Jun/2016:23:35:44 -0300 "GET /index.php" 301
- -  05/Jun/2016:23:37:18 -0300 "GET /index.php" 301
- -  05/Jun/2016:23:37:19 -0300 "GET /index.php" 301
- -  05/Jun/2016:23:37:20 -0300 "GET /index.php" 301
- -  05/Jun/2016:23:37:20 -0300 "GET /index.php" 301
- -  05/Jun/2016:23:37:21 -0300 "GET /index.php" 301
- -  05/Jun/2016:23:42:41 -0300 "GET /index.php" 200
- -  05/Jun/2016:23:42:48 -0300 "GET /index.php" 200
- -  05/Jun/2016:23:42:48 -0300 "GET /index.php" 200
- -  05/Jun/2016:23:42:49 -0300 "GET /index.php" 200
- -  05/Jun/2016:23:42:49 -0300 "GET /index.php" 200
- -  05/Jun/2016:23:43:19 -0300 "GET /index.php" 200
- -  05/Jun/2016:23:43:27 -0300 "GET /index.php" 200
- -  05/Jun/2016:23:43:28 -0300 "GET /index.php" 200
- -  05/Jun/2016:23:43:28 -0300 "GET /index.php" 200
- -  05/Jun/2016:23:43:28 -0300 "GET /index.php" 200
- -  05/Jun/2016:23:43:36 -0300 "GET /index.php" 200
- -  05/Jun/2016:23:43:42 -0300 "GET /index.php" 200
- -  05/Jun/2016:23:43:43 -0300 "GET /index.php" 200
- -  05/Jun/2016:23:43:43 -0300 "GET /index.php" 200
- -  05/Jun/2016:23:43:55 -0300 "GET /index.php" 200
- -  05/Jun/2016:23:58:23 -0300 "GET /index.php" 301
- -  05/Jun/2016:23:58:24 -0300 "GET /index.php" 301
- -  05/Jun/2016:23:58:25 -0300 "GET /index.php" 301
- -  05/Jun/2016:23:58:25 -0300 "GET /index.php" 301
- -  05/Jun/2016:23:58:26 -0300 "GET /index.php" 301
- -  05/Jun/2016:23:59:13 -0300 "GET /index.php" 200
- -  05/Jun/2016:23:59:31 -0300 "GET /index.php" 200
- -  06/Jun/2016:00:32:27 -0300 "GET /index.php" 301
- -  06/Jun/2016:00:32:27 -0300 "GET /index.php" 301
- -  06/Jun/2016:00:32:28 -0300 "GET /index.php" 301
- -  06/Jun/2016:00:32:29 -0300 "GET /index.php" 301
- -  06/Jun/2016:00:32:30 -0300 "GET /index.php" 301
- -  06/Jun/2016:00:34:04 -0300 "GET /index.php" 301
- -  06/Jun/2016:00:34:05 -0300 "GET /index.php" 301
- -  06/Jun/2016:00:34:06 -0300 "GET /index.php" 301
- -  06/Jun/2016:00:34:07 -0300 "GET /index.php" 301
- -  06/Jun/2016:00:34:07 -0300 "GET /index.php" 301
- -  06/Jun/2016:00:44:54 -0300 "GET /index.php" 301
- -  06/Jun/2016:00:44:55 -0300 "GET /index.php" 301
- -  06/Jun/2016:00:44:55 -0300 "GET /index.php" 301
- -  06/Jun/2016:00:50:18 -0300 "GET /index.php" 200
- -  06/Jun/2016:01:04:52 -0300 "GET /index.php" 301
- -  06/Jun/2016:01:04:53 -0300 "GET /index.php" 301
- -  06/Jun/2016:01:04:54 -0300 "GET /index.php" 301
- -  06/Jun/2016:01:04:55 -0300 "GET /index.php" 301
- -  06/Jun/2016:01:04:56 -0300 "GET /index.php" 301
- -  06/Jun/2016:01:05:17 -0300 "GET /index.php" 200
- -  06/Jun/2016:01:17:51 -0300 "GET /index.php" 200
- -  06/Jun/2016:01:19:09 -0300 "GET /index.php" 200
- -  06/Jun/2016:01:22:04 -0300 "GET /index.php" 200
- -  06/Jun/2016:01:22:26 -0300 "GET /index.php" 200
- -  06/Jun/2016:01:34:04 -0300 "GET /index.php" 301
- -  06/Jun/2016:01:34:04 -0300 "GET /index.php" 301
- -  06/Jun/2016:01:34:05 -0300 "GET /index.php" 301
- -  06/Jun/2016:01:34:06 -0300 "GET /index.php" 301
- -  06/Jun/2016:01:34:07 -0300 "GET /index.php" 301
- -  06/Jun/2016:01:35:41 -0300 "GET /index.php" 301
- -  06/Jun/2016:01:35:42 -0300 "GET /index.php" 301
- -  06/Jun/2016:01:35:43 -0300 "GET /index.php" 301
- -  06/Jun/2016:01:35:43 -0300 "GET /index.php" 301
- -  06/Jun/2016:01:35:44 -0300 "GET /index.php" 301
- -  06/Jun/2016:01:37:18 -0300 "GET /index.php" 301
- -  06/Jun/2016:01:37:19 -0300 "GET /index.php" 301
- -  06/Jun/2016:01:37:20 -0300 "GET /index.php" 301
- -  06/Jun/2016:01:37:21 -0300 "GET /index.php" 301
- -  06/Jun/2016:01:37:21 -0300 "GET /index.php" 301
- -  06/Jun/2016:01:44:35 -0300 "GET /index.php" 200
- -  06/Jun/2016:02:22:43 -0300 "GET /index.php" 200
- -  06/Jun/2016:02:29:12 -0300 "GET /index.php" 301
- -  06/Jun/2016:02:29:13 -0300 "GET /index.php" 301
- -  06/Jun/2016:02:29:14 -0300 "GET /index.php" 301
- -  06/Jun/2016:02:29:14 -0300 "GET /index.php" 301
- -  06/Jun/2016:02:29:15 -0300 "GET /index.php" 301
- -  06/Jun/2016:02:30:49 -0300 "GET /index.php" 301
- -  06/Jun/2016:02:30:50 -0300 "GET /index.php" 301
- -  06/Jun/2016:02:30:51 -0300 "GET /index.php" 301
- -  06/Jun/2016:02:30:52 -0300 "GET /index.php" 301
- -  06/Jun/2016:02:30:53 -0300 "GET /index.php" 301
- -  06/Jun/2016:03:06:30 -0300 "GET /index.php" 301
- -  06/Jun/2016:03:06:31 -0300 "GET /index.php" 301
- -  06/Jun/2016:03:06:32 -0300 "GET /index.php" 301
- -  06/Jun/2016:03:06:32 -0300 "GET /index.php" 301
- -  06/Jun/2016:03:06:33 -0300 "GET /index.php" 301
- -  06/Jun/2016:03:26:20 -0300 "GET /index.php" 200
- -  06/Jun/2016:03:26:36 -0300 "GET /index.php" 200
- -  06/Jun/2016:03:26:50 -0300 "GET /index.php" 200
- -  06/Jun/2016:03:29:12 -0300 "GET /index.php" 301
- -  06/Jun/2016:03:29:13 -0300 "GET /index.php" 301
- -  06/Jun/2016:03:29:14 -0300 "GET /index.php" 301
- -  06/Jun/2016:03:29:14 -0300 "GET /index.php" 301
- -  06/Jun/2016:03:29:15 -0300 "GET /index.php" 301
- -  06/Jun/2016:03:30:49 -0300 "GET /index.php" 301
- -  06/Jun/2016:03:30:50 -0300 "GET /index.php" 301
- -  06/Jun/2016:03:30:50 -0300 "GET /index.php" 301
- -  06/Jun/2016:03:30:51 -0300 "GET /index.php" 301
- -  06/Jun/2016:03:30:52 -0300 "GET /index.php" 301
- -  06/Jun/2016:03:32:26 -0300 "GET /index.php" 301
- -  06/Jun/2016:03:32:27 -0300 "GET /index.php" 301
- -  06/Jun/2016:03:32:28 -0300 "GET /index.php" 301
- -  06/Jun/2016:03:32:28 -0300 "GET /index.php" 301
- -  06/Jun/2016:03:32:29 -0300 "GET /index.php" 301
- -  06/Jun/2016:03:34:04 -0300 "GET /index.php" 301
- -  06/Jun/2016:03:34:04 -0300 "GET /index.php" 301
- -  06/Jun/2016:03:34:05 -0300 "GET /index.php" 301
- -  06/Jun/2016:03:34:06 -0300 "GET /index.php" 301
- -  06/Jun/2016:03:34:06 -0300 "GET /index.php" 301
- -  06/Jun/2016:04:03:45 -0300 "GET /index.php" 200
- -  06/Jun/2016:04:05:23 -0300 "GET /index.php" 301
- -  06/Jun/2016:04:05:24 -0300 "GET /index.php" 301
- -  06/Jun/2016:04:05:25 -0300 "GET /index.php" 301
- -  06/Jun/2016:04:05:26 -0300 "GET /index.php" 301
- -  06/Jun/2016:04:05:27 -0300 "GET /index.php" 301
- -  06/Jun/2016:04:25:49 -0300 "GET /index.php" 200
- -  06/Jun/2016:04:26:17 -0300 "GET /index.php" 200
- -  06/Jun/2016:05:12:43 -0300 "GET /index.php" 200
- -  06/Jun/2016:05:19:42 -0300 "GET /index.php" 200
- -  06/Jun/2016:05:29:36 -0300 "GET /index.php" 301
- -  06/Jun/2016:05:29:37 -0300 "GET /index.php" 301
- -  06/Jun/2016:05:29:38 -0300 "GET /index.php" 301
- -  06/Jun/2016:05:29:38 -0300 "GET /index.php" 301
- -  06/Jun/2016:05:29:39 -0300 "GET /index.php" 301
- -  06/Jun/2016:05:31:15 -0300 "GET /index.php" 301
- -  06/Jun/2016:05:31:16 -0300 "GET /index.php" 301
- -  06/Jun/2016:05:31:17 -0300 "GET /index.php" 301
- -  06/Jun/2016:05:31:18 -0300 "GET /index.php" 301
- -  06/Jun/2016:05:31:18 -0300 "GET /index.php" 301
- -  06/Jun/2016:05:59:20 -0300 "GET /index.php" 301
- -  06/Jun/2016:05:59:20 -0300 "GET /index.php" 301
- -  06/Jun/2016:05:59:21 -0300 "GET /index.php" 301
- -  06/Jun/2016:05:59:21 -0300 "GET /index.php" 301
- -  06/Jun/2016:05:59:22 -0300 "GET /index.php" 301
- -  06/Jun/2016:06:00:58 -0300 "GET /index.php" 301
- -  06/Jun/2016:06:00:59 -0300 "GET /index.php" 301
- -  06/Jun/2016:06:01:00 -0300 "GET /index.php" 301
- -  06/Jun/2016:06:01:00 -0300 "GET /index.php" 301
- -  06/Jun/2016:06:01:01 -0300 "GET /index.php" 301
- -  06/Jun/2016:06:02:37 -0300 "GET /index.php" 301
- -  06/Jun/2016:06:02:38 -0300 "GET /index.php" 301
- -  06/Jun/2016:06:02:39 -0300 "GET /index.php" 301
- -  06/Jun/2016:06:02:40 -0300 "GET /index.php" 301
- -  06/Jun/2016:06:02:40 -0300 "GET /index.php" 301
