[02-Apr-2016 15:56:28 UTC] PHP Notice:  Undefined index: se_geoloc in /srv/canseidebuscar.com.br/www/modules/mod_djclassifieds_search/tmpl/default.php on line 224
[02-Apr-2016 15:56:38 UTC] PHP Notice:  Undefined index: se_geoloc in /srv/canseidebuscar.com.br/www/modules/mod_djclassifieds_search/tmpl/default.php on line 224
[02-Apr-2016 15:56:43 UTC] PHP Notice:  Undefined index: se_geoloc in /srv/canseidebuscar.com.br/www/modules/mod_djclassifieds_search/tmpl/default.php on line 224
[02-Apr-2016 16:21:55 UTC] PHP Notice:  Undefined index: se_geoloc in /srv/canseidebuscar.com.br/www/modules/mod_djclassifieds_search/tmpl/default.php on line 224
[02-Apr-2016 16:22:09 UTC] PHP Notice:  Undefined index: se_geoloc in /srv/canseidebuscar.com.br/www/modules/mod_djclassifieds_search/tmpl/default.php on line 224
[02-Apr-2016 16:26:48 UTC] PHP Notice:  Undefined index: se_geoloc in /srv/canseidebuscar.com.br/www/modules/mod_djclassifieds_search/tmpl/default.php on line 224
[02-Apr-2016 16:30:01 UTC] PHP Notice:  Undefined index: se_geoloc in /srv/canseidebuscar.com.br/www/modules/mod_djclassifieds_search/tmpl/default.php on line 224
[02-Apr-2016 16:31:17 UTC] PHP Notice:  Undefined index: se_geoloc in /srv/canseidebuscar.com.br/www/modules/mod_djclassifieds_search/tmpl/default.php on line 224
[02-Apr-2016 16:31:18 UTC] PHP Notice:  Undefined index: se_geoloc in /srv/canseidebuscar.com.br/www/modules/mod_djclassifieds_search/tmpl/default.php on line 224
[02-Apr-2016 16:36:30 UTC] PHP Notice:  Undefined index: se_geoloc in /srv/canseidebuscar.com.br/www/modules/mod_djclassifieds_search/tmpl/default.php on line 224
[02-Apr-2016 16:37:42 UTC] PHP Notice:  Undefined index: se_geoloc in /srv/canseidebuscar.com.br/www/modules/mod_djclassifieds_search/tmpl/default.php on line 224
[02-Apr-2016 16:38:44 UTC] PHP Notice:  Undefined index: se_geoloc in /srv/canseidebuscar.com.br/www/modules/mod_djclassifieds_search/tmpl/default.php on line 224
[02-Apr-2016 16:41:46 UTC] PHP Notice:  Undefined index: se_geoloc in /srv/canseidebuscar.com.br/www/modules/mod_djclassifieds_search/tmpl/default.php on line 224
[02-Apr-2016 16:41:51 UTC] PHP Notice:  Undefined index: se_geoloc in /srv/canseidebuscar.com.br/www/modules/mod_djclassifieds_search/tmpl/default.php on line 224
[02-Apr-2016 16:42:01 UTC] PHP Notice:  Undefined index: se_geoloc in /srv/canseidebuscar.com.br/www/modules/mod_djclassifieds_search/tmpl/default.php on line 224
[02-Apr-2016 16:43:19 UTC] PHP Notice:  Undefined index: se_geoloc in /srv/canseidebuscar.com.br/www/modules/mod_djclassifieds_search/tmpl/default.php on line 224
